{
    "openapi": "3.0.0",
    "info": {
        "title": "Tarzan-express API ",
        "version": "1.0.0"
    },
    "paths": {
        "/api/login": {
            "post": {
                "tags": [
                    "authentification"
                ],
                "summary": "AUTHENTIFICATION",
                "description": "Authentification par numero de téléphone, mot de passe",
                "operationId": "authLogin",
                "requestBody": {
                    "description": "Pass user credentials",
                    "required": true,
                    "content": {
                        "application/json": {
                            "schema": {
                                "required": [
                                    "phone_number",
                                    "password"
                                ],
                                "properties": {
                                    "phone_number": {
                                        "type": "string",
                                        "example": "90023454"
                                    },
                                    "password": {
                                        "type": "string",
                                        "format": "password",
                                        "example": "12345678"
                                    }
                                },
                                "type": "object"
                            }
                        }
                    }
                },
                "responses": {
                    "422": {
                        "description": "Wrong credentials response",
                        "content": {
                            "application/json": {
                                "schema": {
                                    "properties": {
                                        "message": {
                                            "type": "string",
                                            "example": "Sorry, wrong email address or password. Please try again"
                                        }
                                    },
                                    "type": "object"
                                }
                            }
                        }
                    }
                }
            }
        },
        "/api/register": {
            "post": {
                "tags": [
                    "authentification"
                ],
                "summary": "AUTHENTIFICATION",
                "description": "Inscription des utilisateurs. Le mot de passe minimum est 6",
                "operationId": "authRegister",
                "requestBody": {
                    "description": "Pass user credentials",
                    "required": true,
                    "content": {
                        "application/json": {
                            "schema": {
                                "required": [
                                    "phone_number",
                                    "password",
                                    "password_confirmation",
                                    "agree",
                                    "pays_id",
                                    "nom",
                                    "prenoms"
                                ],
                                "properties": {
                                    "phone_number": {
                                        "type": "string",
                                        "example": "90023454"
                                    },
                                    "password": {
                                        "type": "string",
                                        "format": "password",
                                        "example": "12345678"
                                    },
                                    "pays_id": {
                                        "type": "integer",
                                        "example": "1"
                                    },
                                    "agree": {
                                        "type": "string",
                                        "example": "on"
                                    },
                                    "email": {
                                        "type": "string",
                                        "example": "johndoe@gmail.com"
                                    },
                                    "password_confirmation": {
                                        "type": "string",
                                        "example": "12345678"
                                    },
                                    "nom": {
                                        "type": "string",
                                        "example": "john"
                                    },
                                    "prenoms": {
                                        "type": "string",
                                        "example": "doe"
                                    },
                                    "code_parrainage": {
                                        "type": "string",
                                        "example": "ZRT8"
                                    }
                                },
                                "type": "object"
                            }
                        }
                    }
                },
                "responses": {
                    "422": {
                        "description": "Wrong credentials response",
                        "content": {
                            "application/json": {
                                "schema": {
                                    "properties": {
                                        "message": {
                                            "type": "string",
                                            "example": "Sorry, wrong email address or password. Please try again"
                                        }
                                    },
                                    "type": "object"
                                }
                            }
                        }
                    }
                }
            }
        },
        "/api/messages/send/{id}": {
            "post": {
                "tags": [
                    "Commandes messages"
                ],
                "summary": "COMMANDE ENVOI DE MESSAGES",
                "description": "Envoi de messages par rapport à ue commande",
                "operationId": "commandeSendMessage",
                "parameters": [
                    {
                        "name": "id",
                        "in": "path",
                        "description": "ID commande concernée par le message",
                        "required": true,
                        "schema": {
                            "type": "integer",
                            "format": "int64"
                        }
                    }
                ],
                "requestBody": {
                    "description": "Pass user credentials",
                    "required": true,
                    "content": {
                        "application/json": {
                            "schema": {
                                "properties": {
                                    "contenu": {
                                        "type": "string",
                                        "example": "coucou la mifa"
                                    }
                                },
                                "type": "object"
                            }
                        }
                    }
                },
                "responses": {
                    "422": {
                        "description": "Wrong credentials response",
                        "content": {
                            "application/json": {
                                "schema": {
                                    "properties": {
                                        "message": {
                                            "type": "string",
                                            "example": "Sorry, wrong email address or password. Please try again"
                                        }
                                    },
                                    "type": "object"
                                }
                            }
                        }
                    }
                }
            }
        },
        "/api/messages/send/picture/{id}": {
            "post": {
                "tags": [
                    "Commandes messages"
                ],
                "summary": "COMMANDE ENVOI DE MESSAGES images",
                "description": "Envoi de messages images par rapport à ue commande",
                "operationId": "commandeSendMessagePicture",
                "parameters": [
                    {
                        "name": "id",
                        "in": "path",
                        "description": "ID commande concernée par le message",
                        "required": true,
                        "schema": {
                            "type": "integer",
                            "format": "int64"
                        }
                    }
                ],
                "requestBody": {
                    "description": "Pass user credentials",
                    "required": true,
                    "content": {
                        "application/json": {
                            "schema": {
                                "properties": {
                                    "contenu": {
                                        "type": "string",
                                        "example": "coucou la mifa"
                                    }
                                },
                                "type": "object"
                            }
                        }
                    }
                },
                "responses": {
                    "422": {
                        "description": "Wrong credentials response",
                        "content": {
                            "application/json": {
                                "schema": {
                                    "properties": {
                                        "message": {
                                            "type": "string",
                                            "example": "Sorry, wrong email address or password. Please try again"
                                        }
                                    },
                                    "type": "object"
                                }
                            }
                        }
                    }
                }
            }
        },
        "/api/mode-livraisons/": {
            "get": {
                "tags": [
                    "Mode de livraison"
                ],
                "summary": "récupération des modes de livraison",
                "description": "récupérer les modes de livraison. Autorisation jwt requise",
                "operationId": "modesLivraison",
                "responses": {
                    "422": {
                        "description": "Wrong credentials response",
                        "content": {
                            "application/json": {
                                "schema": {
                                    "properties": {
                                        "message": {
                                            "type": "string",
                                            "example": "Sorry, wrong email address or password. Please try again"
                                        }
                                    },
                                    "type": "object"
                                }
                            }
                        }
                    },
                    "401": {
                        "description": "Token expriré",
                        "content": {
                            "application/json": {
                                "schema": {
                                    "properties": {
                                        "message": {
                                            "type": "string",
                                            "example": "token expiré"
                                        }
                                    },
                                    "type": "object"
                                }
                            }
                        }
                    }
                }
            }
        },
        "/api/commande": {
            "get": {
                "tags": [
                    "Commande"
                ],
                "summary": "récupération des commandes",
                "description": "récupérer les commandes de l'utilisateur connecte. Autorisation jwt requise",
                "operationId": "commandes",
                "responses": {
                    "422": {
                        "description": "Wrong credentials response",
                        "content": {
                            "application/json": {
                                "schema": {
                                    "properties": {
                                        "message": {
                                            "type": "string",
                                            "example": "Sorry, wrong email address or password. Please try again"
                                        }
                                    },
                                    "type": "object"
                                }
                            }
                        }
                    },
                    "401": {
                        "description": "Token expriré",
                        "content": {
                            "application/json": {
                                "schema": {
                                    "properties": {
                                        "message": {
                                            "type": "string",
                                            "example": "token expiré"
                                        }
                                    },
                                    "type": "object"
                                }
                            }
                        }
                    }
                }
            }
        },
        "/api/commande/show/{id}": {
            "get": {
                "tags": [
                    "Commande"
                ],
                "summary": "commande info",
                "description": "informations d'une commande spécifique. Autorisation jwt requise",
                "operationId": "commandeInfo",
                "parameters": [
                    {
                        "name": "id",
                        "in": "path",
                        "description": "ID commande à retourner",
                        "required": true,
                        "schema": {
                            "type": "integer",
                            "format": "int64"
                        }
                    }
                ],
                "responses": {
                    "422": {
                        "description": "Wrong credentials response",
                        "content": {
                            "application/json": {
                                "schema": {
                                    "properties": {
                                        "message": {
                                            "type": "string",
                                            "example": "Sorry, wrong email address or password. Please try again"
                                        }
                                    },
                                    "type": "object"
                                }
                            }
                        }
                    }
                }
            }
        },
        "/api/messages/commandes/{id}": {
            "get": {
                "tags": [
                    "Commandes messages"
                ],
                "summary": "récupération des messages liés à une commande",
                "description": "récupération des messages liés à une commande",
                "operationId": "getMessagesFromCommande",
                "parameters": [
                    {
                        "name": "id",
                        "in": "path",
                        "description": "ID commande concernée par le message",
                        "required": true,
                        "schema": {
                            "type": "integer",
                            "format": "int64"
                        }
                    }
                ],
                "responses": {
                    "422": {
                        "description": "Wrong credentials response",
                        "content": {
                            "application/json": {
                                "schema": {
                                    "properties": {
                                        "message": {
                                            "type": "string",
                                            "example": "Sorry, wrong email address or password. Please try again"
                                        }
                                    },
                                    "type": "object"
                                }
                            }
                        }
                    },
                    "401": {
                        "description": "Token expriré",
                        "content": {
                            "application/json": {
                                "schema": {
                                    "properties": {
                                        "message": {
                                            "type": "string",
                                            "example": "token expiré"
                                        }
                                    },
                                    "type": "object"
                                }
                            }
                        }
                    }
                }
            }
        },
        "/api/notifications": {
            "get": {
                "tags": [
                    "Notifications"
                ],
                "summary": "Compter les nouvelles notifications",
                "description": "Compter les nouvelles notifications",
                "operationId": "countNewNotifications",
                "responses": {
                    "422": {
                        "description": "Wrong credentials response",
                        "content": {
                            "application/json": {
                                "schema": {
                                    "properties": {
                                        "message": {
                                            "type": "string",
                                            "example": "Sorry, wrong email address or password. Please try again"
                                        }
                                    },
                                    "type": "object"
                                }
                            }
                        }
                    },
                    "401": {
                        "description": "Token expriré",
                        "content": {
                            "application/json": {
                                "schema": {
                                    "properties": {
                                        "message": {
                                            "type": "string",
                                            "example": "token expiré"
                                        }
                                    },
                                    "type": "object"
                                }
                            }
                        }
                    }
                }
            }
        },
        "/api/notifications_view": {
            "get": {
                "tags": [
                    "Notifications"
                ],
                "summary": "Afficher les notifications de l'utilisateur",
                "description": "Afficher les notifications de l'utilisateur",
                "operationId": "getUserNotifications",
                "responses": {
                    "422": {
                        "description": "Wrong credentials response",
                        "content": {
                            "application/json": {
                                "schema": {
                                    "properties": {
                                        "message": {
                                            "type": "string",
                                            "example": "Sorry, wrong email address or password. Please try again"
                                        }
                                    },
                                    "type": "object"
                                }
                            }
                        }
                    },
                    "401": {
                        "description": "Token expriré",
                        "content": {
                            "application/json": {
                                "schema": {
                                    "properties": {
                                        "message": {
                                            "type": "string",
                                            "example": "token expiré"
                                        }
                                    },
                                    "type": "object"
                                }
                            }
                        }
                    }
                }
            }
        },
        "/api/pays": {
            "get": {
                "tags": [
                    "Pays"
                ],
                "summary": "PAYS",
                "description": "recuperation des pays",
                "operationId": "paysListe",
                "responses": {
                    "422": {
                        "description": "Wrong credentials response",
                        "content": {
                            "application/json": {
                                "schema": {
                                    "properties": {
                                        "message": {
                                            "type": "string",
                                            "example": "Sorry, wrong email address or password. Please try again"
                                        }
                                    },
                                    "type": "object"
                                }
                            }
                        }
                    }
                }
            }
        },
        "/api/users/update/{id}": {
            "put": {
                "tags": [
                    "utilisateurs"
                ],
                "summary": "Modification des utilisateurs",
                "description": "Modification des utilisateurs",
                "operationId": "usersUpdate",
                "parameters": [
                    {
                        "name": "id",
                        "in": "path",
                        "description": "ID utilisateur",
                        "required": true,
                        "schema": {
                            "type": "integer",
                            "format": "int64"
                        }
                    }
                ],
                "requestBody": {
                    "description": "Pass user credentials",
                    "required": true,
                    "content": {
                        "application/json": {
                            "schema": {
                                "properties": {
                                    "nom": {
                                        "type": "string",
                                        "example": "AFATCHAO"
                                    },
                                    "prenoms": {
                                        "type": "string",
                                        "example": "AMI"
                                    },
                                    "phone_number": {
                                        "type": "string",
                                        "example": "70999999"
                                    },
                                    "email": {
                                        "type": "string",
                                        "example": "garrickervin@gmail.com"
                                    }
                                },
                                "type": "object"
                            }
                        }
                    }
                },
                "responses": {
                    "422": {
                        "description": "Wrong credentials response",
                        "content": {
                            "application/json": {
                                "schema": {
                                    "properties": {
                                        "message": {
                                            "type": "string",
                                            "example": "Sorry, wrong email address or password. Please try again"
                                        }
                                    },
                                    "type": "object"
                                }
                            }
                        }
                    }
                }
            }
        }
    },
    "components": {
        "securitySchemes": {
            "bearerAuth": {
                "type": "http",
                "scheme": "bearer"
            }
        }
    },
    "security": [
        []
    ]
}